module github.com/NordSecurity/nordvpn-linux

go 1.20

require (
	github.com/NordSecurity/gopenvpn v0.0.0-20230117114932-2252c52984b4
	github.com/NordSecurity/libdrop v1.0.0
	github.com/NordSecurity/libtelio v0.0.0-20230515134722-3856e42aae53
	github.com/coreos/go-semver v0.3.1
	github.com/deckarep/golang-set v1.8.0
	github.com/docker/docker v23.0.5+incompatible
	github.com/docker/go-units v0.5.0
	github.com/eclipse/paho.mqtt.golang v1.4.2
	github.com/esiqveland/notify v0.11.2
	github.com/fatih/color v1.15.0
	github.com/go-co-op/gocron v1.18.1
	github.com/go-ping/ping v1.1.0
	github.com/godbus/dbus/v5 v5.1.0
	github.com/google/uuid v1.3.0
	github.com/hako/durafmt v0.0.0-20210608085754-5c1018a4e16b
	github.com/jbowtie/gokogiri v0.0.0-20190301021639-37f655d3078f
	github.com/jbowtie/ratago v0.0.0-20200401224626-3140c0a9b186
	github.com/kofalt/go-memoize v0.0.0-20220914132407-0b5d6a304579
	github.com/magefile/mage v1.14.0
	github.com/milosgajdos/tenus v0.0.3
	github.com/quic-go/quic-go v0.33.0
	github.com/stretchr/testify v1.8.2
	github.com/urfave/cli/v2 v2.25.0
	github.com/vishvananda/netlink v1.1.0
	golang.org/x/crypto v0.7.0
	golang.org/x/exp v0.0.0-20230310171629-522b1b587ee0
	golang.org/x/mod v0.9.0
	golang.org/x/oauth2 v0.6.0
	golang.org/x/sys v0.6.0
	golang.zx2c4.com/wireguard v0.0.0-20230313165553-0ad14a89f5f9
	google.golang.org/api v0.112.0
	google.golang.org/grpc v1.53.0
	google.golang.org/protobuf v1.29.1
	gopkg.in/natefinch/lumberjack.v2 v2.2.1
)

require (
	cloud.google.com/go/compute v1.18.0 // indirect
	cloud.google.com/go/compute/metadata v0.2.3 // indirect
	github.com/Microsoft/go-winio v0.6.0 // indirect
	github.com/cpuguy83/go-md2man/v2 v2.0.2 // indirect
	github.com/davecgh/go-spew v1.1.1 // indirect
	github.com/docker/distribution v2.8.2+incompatible // indirect
	github.com/docker/go-connections v0.4.0 // indirect
	github.com/docker/libcontainer v2.2.1+incompatible // indirect
	github.com/go-task/slim-sprig v0.0.0-20210107165309-348f09dbbbc0 // indirect
	github.com/gogo/protobuf v1.3.2 // indirect
	github.com/golang/groupcache v0.0.0-20200121045136-8c9f03a8e57e // indirect
	github.com/golang/mock v1.6.0 // indirect
	github.com/golang/protobuf v1.5.2 // indirect
	github.com/google/pprof v0.0.0-20210407192527-94a9f03dee38 // indirect
	github.com/googleapis/enterprise-certificate-proxy v0.2.3 // indirect
	github.com/googleapis/gax-go/v2 v2.7.0 // indirect
	github.com/gorilla/websocket v1.4.2 // indirect
	github.com/kr/pretty v0.3.1 // indirect
	github.com/mattn/go-colorable v0.1.13 // indirect
	github.com/mattn/go-isatty v0.0.17 // indirect
	github.com/moby/term v0.0.0-20221205130635-1aeaba878587 // indirect
	github.com/morikuni/aec v1.0.0 // indirect
	github.com/onsi/ginkgo/v2 v2.2.0 // indirect
	github.com/opencontainers/go-digest v1.0.0 // indirect
	github.com/opencontainers/image-spec v1.0.2 // indirect
	github.com/patrickmn/go-cache v2.1.0+incompatible // indirect
	github.com/pkg/errors v0.9.1 // indirect
	github.com/pmezard/go-difflib v1.0.0 // indirect
	github.com/quic-go/qpack v0.4.0 // indirect
	github.com/quic-go/qtls-go1-19 v0.2.1 // indirect
	github.com/quic-go/qtls-go1-20 v0.1.1 // indirect
	github.com/robfig/cron/v3 v3.0.1 // indirect
	github.com/russross/blackfriday/v2 v2.1.0 // indirect
	github.com/vishvananda/netns v0.0.0-20191106174202-0a2b9b5464df // indirect
	github.com/xrash/smetrics v0.0.0-20201216005158-039620a65673 // indirect
	go.opencensus.io v0.24.0 // indirect
	golang.org/x/net v0.8.0 // indirect
	golang.org/x/sync v0.1.0 // indirect
	golang.org/x/term v0.6.0 // indirect
	golang.org/x/text v0.8.0 // indirect
	golang.org/x/tools v0.6.0 // indirect
	golang.zx2c4.com/wintun v0.0.0-20230126152724-0fa3db229ce2 // indirect
	google.golang.org/appengine v1.6.7 // indirect
	google.golang.org/genproto v0.0.0-20230303212802-e74f57abe488 // indirect
	gopkg.in/yaml.v3 v3.0.1 // indirect
	gotest.tools/v3 v3.4.0 // indirect
)
